{
  "count": 884069,
  "next": "https://api.rawg.io/api/games?key=d7841163d7574c0eb5278559bdea7f11&page=2",
  "previous": null,
  "results": [
    {
      "id": 3498,
      "slug": "grand-theft-auto-v",
      "name": "Grand Theft Auto V",
      "released": "2013-09-17",
      "tba": false,
      "background_image": "https://media.rawg.io/media/games/20a/20aa03a10cda45239fe22d035c0ebe64.jpg",
      "rating": 4.47,
      "rating_top": 5,
      "ratings": [
        {
          "id": 5,
          "title": "exceptional",
          "count": 4234,
          "percent": 59.01
        },
        {
          "id": 4,
          "title": "recommended",
          "count": 2348,
          "percent": 32.72
        },
        {
          "id": 3,
          "title": "meh",
          "count": 456,
          "percent": 6.36
        },
        {
          "id": 1,
          "title": "skip",
          "count": 137,
          "percent": 1.91
        }
      ],
      "ratings_count": 7062,
      "reviews_text_count": 65,
      "added": 21927,
      "added_by_status": {
        "yet": 548,
        "owned": 12675,
        "beaten": 6189,
        "toplay": 621,
        "dropped": 1145,
        "playing": 749
      },
      "metacritic": 92,
      "playtime": 74,
      "suggestions_count": 439,
      "updated": "2025-04-02T15:10:39",
      "user_game": null,
      "reviews_count": 7175,
      "saturated_color": "0f0f0f",
      "dominant_color": "0f0f0f",
      "platforms": [
        {
          "platform": {
            "id": 4,
            "name": "PC",
            "slug": "pc",
            "image": null,
            "year_end": null,
            "year_start": null,
            "games_count": 546420,
            "image_background": "https://media.rawg.io/media/games/49c/49c3dfa4ce2f6f140cc4825868e858cb.jpg"
          },
          "released_at": "2013-09-17",
          "requirements_en": {
            "minimum": "Minimum:OS: Windows 10 64 Bit, Windows 8.1 64 Bit, Windows 8 64 Bit, Windows 7 64 Bit Service Pack 1, Windows Vista 64 Bit Service Pack 2* (*NVIDIA video card recommended if running Vista OS)Processor: Intel Core 2 Quad CPU Q6600 @ 2.40GHz (4 CPUs) / AMD Phenom 9850 Quad-Core Processor (4 CPUs) @ 2.5GHzMemory: 4 GB RAMGraphics: NVIDIA 9800 GT 1GB / AMD HD 4870 1GB (DX 10, 10.1, 11)Storage: 72 GB available spaceSound Card: 100% DirectX 10 compatibleAdditional Notes: Over time downloadable content and programming changes will change the system requirements for this game.  Please refer to your hardware manufacturer and www.rockstargames.com/support for current compatibility information. Some system components such as mobile chipsets, integrated, and AGP graphics cards may be incompatible. Unlisted specifications may not be supported by publisher.     Other requirements:  Installation and online play requires log-in to Rockstar Games Social Club (13+) network; internet connection required for activation, online play, and periodic entitlement verification; software installations required including Rockstar Games Social Club platform, DirectX , Chromium, and Microsoft Visual C++ 2008 sp1 Redistributable Package, and authentication software that recognizes certain hardware attributes for entitlement, digital rights management, system, and other support purposes.     SINGLE USE SERIAL CODE REGISTRATION VIA INTERNET REQUIRED; REGISTRATION IS LIMITED TO ONE ROCKSTAR GAMES SOCIAL CLUB ACCOUNT (13+) PER SERIAL CODE; ONLY ONE PC LOG-IN ALLOWED PER SOCIAL CLUB ACCOUNT AT ANY TIME; SERIAL CODE(S) ARE NON-TRANSFERABLE ONCE USED; SOCIAL CLUB ACCOUNTS ARE NON-TRANSFERABLE.  Partner Requirements:  Please check the terms of service of this site before purchasing this software.",
            "recommended": "Recommended:OS: Windows 10 64 Bit, Windows 8.1 64 Bit, Windows 8 64 Bit, Windows 7 64 Bit Service Pack 1Processor: Intel Core i5 3470 @ 3.2GHz (4 CPUs) / AMD X8 FX-8350 @ 4GHz (8 CPUs)Memory: 8 GB RAMGraphics: NVIDIA GTX 660 2GB / AMD HD 7870 2GBStorage: 72 GB available spaceSound Card: 100% DirectX 10 compatibleAdditional Notes:"
          },
          "requirements_ru": null
        },
        {
          "platform": {
            "id": 187,
            "name": "PlayStation 5",
            "slug": "playstation5",
            "image": null,
            "year_end": null,
            "year_start": 2020,
            "games_count": 1227,
            "image_background": "https://media.rawg.io/media/games/eb5/eb514db62d397c64288160d5bd8fd67a.jpg"
          },
          "released_at": "2013-09-17",
          "requirements_en": null,
          "requirements_ru": null
        },
        {
          "platform": {
            "id": 186,
            "name": "Xbox Series S/X",
            "slug": "xbox-series-x",
            "image": null,
            "year_end": null,
            "year_start": 2020,
            "games_count": 1066,
            "image_background": "https://media.rawg.io/media/games/618/618c2031a07bbff6b4f611f10b6bcdbc.jpg"
          },
          "released_at": "2013-09-17",
          "requirements_en": null,
          "requirements_ru": null
        },
        {
          "platform": {
            "id": 18,
            "name": "PlayStation 4",
            "slug": "playstation4",
            "image": null,
            "year_end": null,
            "year_start": null,
            "games_count": 6909,
            "image_background": "https://media.rawg.io/media/games/942/9424d6bb763dc38d9378b488603c87fa.jpg"
          },
          "released_at": "2013-09-17",
          "requirements_en": null,
          "requirements_ru": null
        },
        {
          "platform": {
            "id": 16,
            "name": "PlayStation 3",
            "slug": "playstation3",
            "image": null,
            "year_end": null,
            "year_start": null,
            "games_count": 3167,
            "image_background": "https://media.rawg.io/media/games/2ba/2bac0e87cf45e5b508f227d281c9252a.jpg"
          },
          "released_at": "2013-09-17",
          "requirements_en": null,
          "requirements_ru": null
        },
        {
          "platform": {
            "id": 14,
            "name": "Xbox 360",
            "slug": "xbox360",
            "image": null,
            "year_end": null,
            "year_start": null,
            "games_count": 2805,
            "image_background": "https://media.rawg.io/media/games/4a0/4a0a1316102366260e6f38fd2a9cfdce.jpg"
          },
          "released_at": "2013-09-17",
          "requirements_en": null,
          "requirements_ru": null
        },
        {
          "platform": {
            "id": 1,
            "name": "Xbox One",
            "slug": "xbox-one",
            "image": null,
            "year_end": null,
            "year_start": null,
            "games_count": 5691,
            "image_background": "https://media.rawg.io/media/games/fc1/fc1307a2774506b5bd65d7e8424664a7.jpg"
          },
          "released_at": "2013-09-17",
          "requirements_en": null,
          "requirements_ru": null
        }
      ],
      "parent_platforms": [
        {
          "platform": {
            "id": 1,
            "name": "PC",
            "slug": "pc"
          }
        },
        {
          "platform": {
            "id": 2,
            "name": "PlayStation",
            "slug": "playstation"
          }
        },
        {
          "platform": {
            "id": 3,
            "name": "Xbox",
            "slug": "xbox"
          }
        }
      ],
      "genres": [
        {
          "id": 4,
          "name": "Action",
          "slug": "action",
          "games_count": 186320,
          "image_background": "https://media.rawg.io/media/games/bc0/bc06a29ceac58652b684deefe7d56099.jpg"
        }
      ],
      "stores": [
        {
          "id": 290376,
          "store": {
            "id": 1,
            "name": "Steam",
            "slug": "steam",
            "domain": "store.steampowered.com",
            "games_count": 109414,
            "image_background": "https://media.rawg.io/media/games/34b/34b1f1850a1c06fd971bc6ab3ac0ce0e.jpg"
          }
        },
        {
          "id": 290375,
          "store": {
            "id": 3,
            "name": "PlayStation Store",
            "slug": "playstation-store",
            "domain": "store.playstation.com",
            "games_count": 8032,
            "image_background": "https://media.rawg.io/media/games/021/021c4e21a1824d2526f925eff6324653.jpg"
          }
        },
        {
          "id": 438095,
          "store": {
            "id": 11,
            "name": "Epic Games",
            "slug": "epic-games",
            "domain": "epicgames.com",
            "games_count": 1383,
            "image_background": "https://media.rawg.io/media/games/4e0/4e0e7b6d6906a131307c94266e5c9a1c.jpg"
          }
        },
        {
          "id": 290377,
          "store": {
            "id": 7,
            "name": "Xbox 360 Store",
            "slug": "xbox360",
            "domain": "marketplace.xbox.com",
            "games_count": 1915,
            "image_background": "https://media.rawg.io/media/games/7cf/7cfc9220b401b7a300e409e539c9afd5.jpg"
          }
        },
        {
          "id": 290378,
          "store": {
            "id": 2,
            "name": "Xbox Store",
            "slug": "xbox-store",
            "domain": "microsoft.com",
            "games_count": 4924,
            "image_background": "https://media.rawg.io/media/games/4a0/4a0a1316102366260e6f38fd2a9cfdce.jpg"
          }
        }
      ],
      "clip": null,
      "tags": [
        {
          "id": 31,
          "name": "Singleplayer",
          "slug": "singleplayer",
          "language": "eng",
          "games_count": 237667,
          "image_background": "https://media.rawg.io/media/games/b45/b45575f34285f2c4479c9a5f719d972e.jpg"
        },
        {
          "id": 40847,
          "name": "Steam Achievements",
          "slug": "steam-achievements",
          "language": "eng",
          "games_count": 44694,
          "image_background": "https://media.rawg.io/media/games/be0/be01c3d7d8795a45615da139322ca080.jpg"
        },
        {
          "id": 7,
          "name": "Multiplayer",
          "slug": "multiplayer",
          "language": "eng",
          "games_count": 40396,
          "image_background": "https://media.rawg.io/media/games/b8c/b8c243eaa0fbac8115e0cdccac3f91dc.jpg"
        },
        {
          "id": 40836,
          "name": "Full controller support",
          "slug": "full-controller-support",
          "language": "eng",
          "games_count": 21071,
          "image_background": "https://media.rawg.io/media/games/73e/73eecb8909e0c39fb246f457b5d6cbbe.jpg"
        },
        {
          "id": 13,
          "name": "Atmospheric",
          "slug": "atmospheric",
          "language": "eng",
          "games_count": 36531,
          "image_background": "https://media.rawg.io/media/games/b7b/b7b8381707152afc7d91f5d95de70e39.jpg"
        },
        {
          "id": 42,
          "name": "Great Soundtrack",
          "slug": "great-soundtrack",
          "language": "eng",
          "games_count": 3423,
          "image_background": "https://media.rawg.io/media/games/587/587588c64afbff80e6f444eb2e46f9da.jpg"
        },
        {
          "id": 24,
          "name": "RPG",
          "slug": "rpg",
          "language": "eng",
          "games_count": 23965,
          "image_background": "https://media.rawg.io/media/games/157/15742f2f67eacff546738e1ab5c19d20.jpg"
        },
        {
          "id": 18,
          "name": "Co-op",
          "slug": "co-op",
          "language": "eng",
          "games_count": 13057,
          "image_background": "https://media.rawg.io/media/games/15c/15c95a4915f88a3e89c821526afe05fc.jpg"
        },
        {
          "id": 36,
          "name": "Open World",
          "slug": "open-world",
          "language": "eng",
          "games_count": 8446,
          "image_background": "https://media.rawg.io/media/games/26d/26d4437715bee60138dab4a7c8c59c92.jpg"
        },
        {
          "id": 411,
          "name": "cooperative",
          "slug": "cooperative",
          "language": "eng",
          "games_count": 5813,
          "image_background": "https://media.rawg.io/media/games/d58/d588947d4286e7b5e0e12e1bea7d9844.jpg"
        },
        {
          "id": 8,
          "name": "First-Person",
          "slug": "first-person",
          "language": "eng",
          "games_count": 34551,
          "image_background": "https://media.rawg.io/media/games/00d/00d374f12a3ab5f96c500a2cfa901e15.jpg"
        },
        {
          "id": 149,
          "name": "Third Person",
          "slug": "third-person",
          "language": "eng",
          "games_count": 13163,
          "image_background": "https://media.rawg.io/media/games/995/9951d9d55323d08967640f7b9ab3e342.jpg"
        },
        {
          "id": 4,
          "name": "Funny",
          "slug": "funny",
          "language": "eng",
          "games_count": 26898,
          "image_background": "https://media.rawg.io/media/games/960/960b601d9541cec776c5fa42a00bf6c4.jpg"
        },
        {
          "id": 37,
          "name": "Sandbox",
          "slug": "sandbox",
          "language": "eng",
          "games_count": 7698,
          "image_background": "https://media.rawg.io/media/games/b4e/b4e4c73d5aa4ec66bbf75375c4847a2b.jpg"
        },
        {
          "id": 123,
          "name": "Comedy",
          "slug": "comedy",
          "language": "eng",
          "games_count": 13661,
          "image_background": "https://media.rawg.io/media/screenshots/f2f/f2f3c93d6153da7aee590f3ab8ccd803.jpg"
        },
        {
          "id": 150,
          "name": "Third-Person Shooter",
          "slug": "third-person-shooter",
          "language": "eng",
          "games_count": 3827,
          "image_background": "https://media.rawg.io/media/games/b45/b45575f34285f2c4479c9a5f719d972e.jpg"
        },
        {
          "id": 62,
          "name": "Moddable",
          "slug": "moddable",
          "language": "eng",
          "games_count": 1030,
          "image_background": "https://media.rawg.io/media/games/4a0/4a0a1316102366260e6f38fd2a9cfdce.jpg"
        },
        {
          "id": 144,
          "name": "Crime",
          "slug": "crime",
          "language": "eng",
          "games_count": 3065,
          "image_background": "https://media.rawg.io/media/games/d46/d46373f39458670305704ef089387520.jpg"
        },
        {
          "id": 62349,
          "name": "vr mod",
          "slug": "vr-mod",
          "language": "eng",
          "games_count": 17,
          "image_background": "https://media.rawg.io/media/screenshots/1bb/1bb3f78f0fe43b5d5ca2f3da5b638840.jpg"
        }
      ],
      "esrb_rating": {
        "id": 4,
        "name": "Mature",
        "slug": "mature"
      },
      "short_screenshots": [
        {
          "id": -1,
          "image": "https://media.rawg.io/media/games/20a/20aa03a10cda45239fe22d035c0ebe64.jpg"
        },
        {
          "id": 1827221,
          "image": "https://media.rawg.io/media/screenshots/a7c/a7c43871a54bed6573a6a429451564ef.jpg"
        },
        {
          "id": 1827222,
          "image": "https://media.rawg.io/media/screenshots/cf4/cf4367daf6a1e33684bf19adb02d16d6.jpg"
        },
        {
          "id": 1827223,
          "image": "https://media.rawg.io/media/screenshots/f95/f9518b1d99210c0cae21fc09e95b4e31.jpg"
        },
        {
          "id": 1827225,
          "image": "https://media.rawg.io/media/screenshots/a5c/a5c95ea539c87d5f538763e16e18fb99.jpg"
        },
        {
          "id": 1827226,
          "image": "https://media.rawg.io/media/screenshots/a7e/a7e990bc574f4d34e03b5926361d1ee7.jpg"
        },
        {
          "id": 1827227,
          "image": "https://media.rawg.io/media/screenshots/592/592e2501d8734b802b2a34fee2df59fa.jpg"
        }
      ]
    }
  ]
}
